<?xml version="1.0" encoding="UTF-8" standalone="no"?>
<!-- Created with Inkscape (http://www.inkscape.org/) -->

<svg
   width="512"
   height="512"
   viewBox="0 0 512 512"
   version="1.1"
   id="svg1"
   xml:space="preserve"
   sodipodi:docname="logo.svg"
   inkscape:version="1.3.2 (091e20ef0f, 2023-11-25, custom)"
   inkscape:export-filename="favicon.png"
   inkscape:export-xdpi="96"
   inkscape:export-ydpi="96"
   xmlns:inkscape="http://www.inkscape.org/namespaces/inkscape"
   xmlns:sodipodi="http://sodipodi.sourceforge.net/DTD/sodipodi-0.dtd"
   xmlns="http://www.w3.org/2000/svg"
   xmlns:svg="http://www.w3.org/2000/svg"><sodipodi:namedview
     id="namedview1"
     pagecolor="#ffffff"
     bordercolor="#000000"
     borderopacity="0.25"
     inkscape:showpageshadow="2"
     inkscape:pageopacity="0.0"
     inkscape:pagecheckerboard="0"
     inkscape:deskcolor="#d1d1d1"
     inkscape:document-units="px"
     inkscape:zoom="0.95117187"
     inkscape:cx="249.69199"
     inkscape:cy="291.21971"
     inkscape:window-width="1366"
     inkscape:window-height="693"
     inkscape:window-x="0"
     inkscape:window-y="0"
     inkscape:window-maximized="1"
     inkscape:current-layer="layer1" /><defs
     id="defs1"><rect
       x="100.06768"
       y="101.84661"
       width="195.80787"
       height="260.36935"
       id="rect8" /><filter
       inkscape:collect="always"
       style="color-interpolation-filters:sRGB"
       id="filter53"
       x="-0.060169612"
       y="-0.039924919"
       width="1.1203392"
       height="1.0798498"><feGaussianBlur
         inkscape:collect="always"
         stdDeviation="5.9916946"
         id="feGaussianBlur53" /></filter><filter
       inkscape:collect="always"
       style="color-interpolation-filters:sRGB"
       id="filter58"
       x="-0.35733378"
       y="-0.028840106"
       width="1.7146676"
       height="1.0576802"><feGaussianBlur
         inkscape:collect="always"
         stdDeviation="3.2857935"
         id="feGaussianBlur58" /></filter><filter
       inkscape:menu-tooltip="Bright metallic effect for any color"
       inkscape:menu="Bevels"
       inkscape:label="Bright Metal"
       style="color-interpolation-filters:sRGB;"
       id="filter63"
       x="-2.6197198"
       y="-1.5593063"
       width="6.2394397"
       height="4.1186125"><feGaussianBlur
         result="result6"
         stdDeviation="8"
         in="SourceGraphic"
         id="feGaussianBlur59" /><feComposite
         in2="SourceGraphic"
         in="result6"
         operator="xor"
         result="result10"
         id="feComposite59" /><feGaussianBlur
         result="result2"
         stdDeviation="8"
         id="feGaussianBlur60" /><feComposite
         in2="SourceGraphic"
         operator="atop"
         in="result10"
         result="result91"
         id="feComposite60" /><feComposite
         result="result4"
         in="result2"
         operator="xor"
         in2="result91"
         id="feComposite61" /><feGaussianBlur
         in="result4"
         result="result3"
         stdDeviation="4"
         id="feGaussianBlur61" /><feSpecularLighting
         result="result5"
         specularExponent="5"
         specularConstant="1.1"
         surfaceScale="18"
         id="feSpecularLighting61"><feDistantLight
           azimuth="235"
           elevation="55"
           id="feDistantLight61" /></feSpecularLighting><feComposite
         in="result3"
         k3="1.1"
         k2="0.5"
         operator="arithmetic"
         result="result7"
         in2="result5"
         k1="0.5"
         id="feComposite62" /><feComposite
         in="result7"
         operator="atop"
         in2="SourceGraphic"
         result="result8"
         id="feComposite63" /></filter><filter
       inkscape:menu-tooltip="Bright metallic effect for any color"
       inkscape:menu="Bevels"
       inkscape:label="Bright Metal"
       style="color-interpolation-filters:sRGB;"
       id="filter68"
       x="-2.6197184"
       y="-0.77419355"
       width="6.2394367"
       height="2.5483871"><feGaussianBlur
         result="result6"
         stdDeviation="8"
         in="SourceGraphic"
         id="feGaussianBlur63" /><feComposite
         in2="SourceGraphic"
         in="result6"
         operator="xor"
         result="result10"
         id="feComposite64" /><feGaussianBlur
         result="result2"
         stdDeviation="8"
         id="feGaussianBlur64" /><feComposite
         in2="SourceGraphic"
         operator="atop"
         in="result10"
         result="result91"
         id="feComposite65" /><feComposite
         result="result4"
         in="result2"
         operator="xor"
         in2="result91"
         id="feComposite66" /><feGaussianBlur
         in="result4"
         result="result3"
         stdDeviation="4"
         id="feGaussianBlur66" /><feSpecularLighting
         result="result5"
         specularExponent="5"
         specularConstant="1.1"
         surfaceScale="18"
         id="feSpecularLighting66"><feDistantLight
           azimuth="235"
           elevation="55"
           id="feDistantLight66" /></feSpecularLighting><feComposite
         in="result3"
         k3="1.1"
         k2="0.5"
         operator="arithmetic"
         result="result7"
         in2="result5"
         k1="0.5"
         id="feComposite67" /><feComposite
         in="result7"
         operator="atop"
         in2="SourceGraphic"
         result="result8"
         id="feComposite68" /></filter><filter
       inkscape:menu-tooltip="Bright metallic effect for any color"
       inkscape:menu="Bevels"
       inkscape:label="Bright Metal"
       style="color-interpolation-filters:sRGB;"
       id="filter77"
       x="-2.976"
       y="-0.35893964"
       width="6.952"
       height="1.7178793"><feGaussianBlur
         result="result6"
         stdDeviation="8"
         in="SourceGraphic"
         id="feGaussianBlur73" /><feComposite
         in2="SourceGraphic"
         in="result6"
         operator="xor"
         result="result10"
         id="feComposite73" /><feGaussianBlur
         result="result2"
         stdDeviation="8"
         id="feGaussianBlur74" /><feComposite
         in2="SourceGraphic"
         operator="atop"
         in="result10"
         result="result91"
         id="feComposite74" /><feComposite
         result="result4"
         in="result2"
         operator="xor"
         in2="result91"
         id="feComposite75" /><feGaussianBlur
         in="result4"
         result="result3"
         stdDeviation="4"
         id="feGaussianBlur75" /><feSpecularLighting
         result="result5"
         specularExponent="5"
         specularConstant="1.1"
         surfaceScale="18"
         id="feSpecularLighting75"><feDistantLight
           azimuth="235"
           elevation="55"
           id="feDistantLight75" /></feSpecularLighting><feComposite
         in="result3"
         k3="1.1"
         k2="0.5"
         operator="arithmetic"
         result="result7"
         in2="result5"
         k1="0.5"
         id="feComposite76" /><feComposite
         in="result7"
         operator="atop"
         in2="SourceGraphic"
         result="result8"
         id="feComposite77" /></filter><filter
       inkscape:menu-tooltip="Bright metallic effect for any color"
       inkscape:menu="Bevels"
       inkscape:label="Bright Metal"
       style="color-interpolation-filters:sRGB;"
       id="filter82"
       x="-4.5050721"
       y="-3.444444"
       width="10.010144"
       height="7.8888879"><feGaussianBlur
         result="result6"
         stdDeviation="8"
         in="SourceGraphic"
         id="feGaussianBlur77" /><feComposite
         in2="SourceGraphic"
         in="result6"
         operator="xor"
         result="result10"
         id="feComposite78" /><feGaussianBlur
         result="result2"
         stdDeviation="8"
         id="feGaussianBlur78" /><feComposite
         in2="SourceGraphic"
         operator="atop"
         in="result10"
         result="result91"
         id="feComposite79" /><feComposite
         result="result4"
         in="result2"
         operator="xor"
         in2="result91"
         id="feComposite80" /><feGaussianBlur
         in="result4"
         result="result3"
         stdDeviation="4"
         id="feGaussianBlur80" /><feSpecularLighting
         result="result5"
         specularExponent="5"
         specularConstant="1.1"
         surfaceScale="18"
         id="feSpecularLighting80"><feDistantLight
           azimuth="235"
           elevation="55"
           id="feDistantLight80" /></feSpecularLighting><feComposite
         in="result3"
         k3="1.1"
         k2="0.5"
         operator="arithmetic"
         result="result7"
         in2="result5"
         k1="0.5"
         id="feComposite81" /><feComposite
         in="result7"
         operator="atop"
         in2="SourceGraphic"
         result="result8"
         id="feComposite82" /></filter><filter
       inkscape:menu-tooltip="Bright metallic effect for any color"
       inkscape:menu="Bevels"
       inkscape:label="Bright Metal"
       style="color-interpolation-filters:sRGB;"
       id="filter87"
       x="-2.976"
       y="-1.8415842"
       width="6.952"
       height="4.6831683"><feGaussianBlur
         result="result6"
         stdDeviation="8"
         in="SourceGraphic"
         id="feGaussianBlur82" /><feComposite
         in2="SourceGraphic"
         in="result6"
         operator="xor"
         result="result10"
         id="feComposite83" /><feGaussianBlur
         result="result2"
         stdDeviation="8"
         id="feGaussianBlur83" /><feComposite
         in2="SourceGraphic"
         operator="atop"
         in="result10"
         result="result91"
         id="feComposite84" /><feComposite
         result="result4"
         in="result2"
         operator="xor"
         in2="result91"
         id="feComposite85" /><feGaussianBlur
         in="result4"
         result="result3"
         stdDeviation="4"
         id="feGaussianBlur85" /><feSpecularLighting
         result="result5"
         specularExponent="5"
         specularConstant="1.1"
         surfaceScale="18"
         id="feSpecularLighting85"><feDistantLight
           azimuth="235"
           elevation="55"
           id="feDistantLight85" /></feSpecularLighting><feComposite
         in="result3"
         k3="1.1"
         k2="0.5"
         operator="arithmetic"
         result="result7"
         in2="result5"
         k1="0.5"
         id="feComposite86" /><feComposite
         in="result7"
         operator="atop"
         in2="SourceGraphic"
         result="result8"
         id="feComposite87" /></filter><filter
       inkscape:menu-tooltip="Transparent plastic with deep colors"
       inkscape:menu="Bevels"
       inkscape:label="Deep Colors Plastic"
       style="color-interpolation-filters:sRGB;"
       id="filter92"
       x="-12.389168"
       y="-0.74147224"
       width="25.778335"
       height="2.4829445"><feGaussianBlur
         in="SourceGraphic"
         result="result6"
         stdDeviation="10"
         id="feGaussianBlur87" /><feComposite
         in2="SourceGraphic"
         in="result6"
         operator="xor"
         id="feComposite88" /><feGaussianBlur
         result="result2"
         stdDeviation="10"
         id="feGaussianBlur88" /><feComposite
         in2="SourceGraphic"
         operator="atop"
         result="result91"
         id="feComposite89" /><feComposite
         result="result4"
         in="result2"
         operator="xor"
         in2="result91"
         id="feComposite90" /><feGaussianBlur
         in="result4"
         result="result3"
         stdDeviation="5"
         id="feGaussianBlur90" /><feSpecularLighting
         lighting-color="rgb(255,255,255)"
         in="result3"
         result="result5"
         specularExponent="35"
         specularConstant="3"
         surfaceScale="12"
         id="feSpecularLighting90"><feDistantLight
           elevation="45"
           azimuth="235"
           id="feDistantLight90" /></feSpecularLighting><feComposite
         in2="result5"
         in="SourceGraphic"
         k3="0.7"
         k2="0.8"
         operator="arithmetic"
         result="result7"
         id="feComposite91" /><feComposite
         in="result7"
         operator="in"
         in2="SourceGraphic"
         id="feComposite92" /></filter><filter
       inkscape:label="Cross Noise Poster"
       style="color-interpolation-filters:sRGB;"
       inkscape:menu-tooltip="Overlay with a small scale screen like noise"
       inkscape:menu="Image Paint and Draw"
       id="filter94"
       x="-0.053907911"
       y="-0.033316921"
       width="1.1078158"
       height="1.0666338"><feGaussianBlur
         in="SourceGraphic"
         stdDeviation="4"
         result="result3"
         id="feGaussianBlur92" /><feGaussianBlur
         result="result4"
         in="SourceGraphic"
         stdDeviation="1"
         id="feGaussianBlur93" /><feBlend
         mode="darken"
         in2="result3"
         id="feBlend93" /><feComponentTransfer
         result="result1"
         id="feComponentTransfer93"><feFuncR
           type="discrete"
           tableValues="0 0.2 0.4 0.6 0.8 1 1"
           id="feFuncR93" /><feFuncG
           type="discrete"
           tableValues="0 0.2 0.4 0.6 0.8 1 1"
           id="feFuncG93" /><feFuncB
           type="discrete"
           tableValues="0 0.2 0.4 0.6 0.8 1 1"
           id="feFuncB93" /></feComponentTransfer><feTurbulence
         result="result0"
         seed="0"
         baseFrequency="1"
         numOctaves="7"
         type="fractalNoise"
         id="feTurbulence93" /><feConvolveMatrix
         result="result5"
         order="3 3"
         kernelMatrix="-2 0 -2 0 -10 0 -2 0 -2 "
         id="feConvolveMatrix93" /><feColorMatrix
         in="result5"
         type="saturate"
         values="0"
         result="result4"
         id="feColorMatrix93" /><feComposite
         result="result2"
         k3="0.5"
         k2="0.5"
         k1="1.5"
         operator="arithmetic"
         in="result1"
         in2="result4"
         id="feComposite93" /><feComposite
         in2="SourceGraphic"
         operator="in"
         id="feComposite94" /></filter><filter
       style="color-interpolation-filters:sRGB;"
       inkscape:label="Chromolitho"
       id="filter99"
       x="-0.073214202"
       y="-0.0066633837"
       width="1.1464284"
       height="1.0133268"><feComposite
         in="SourceGraphic"
         in2="SourceGraphic"
         operator="arithmetic"
         k1="0"
         k2="1"
         result="composite1"
         id="feComposite95" /><feConvolveMatrix
         in="composite1"
         kernelMatrix="0 250 0 250 -1010 250 0 250 0 "
         order="3 3"
         result="convolve1"
         id="feConvolveMatrix95" /><feBlend
         in="convolve1"
         in2="composite1"
         mode="darken"
         result="blend1"
         id="feBlend95" /><feGaussianBlur
         in="blend1"
         stdDeviation="1"
         result="blur1"
         id="feGaussianBlur95" /><feTurbulence
         baseFrequency="1 1"
         numOctaves="1"
         seed="0"
         type="fractalNoise"
         result="turbulence1"
         id="feTurbulence95" /><feColorMatrix
         values="1 0 0 0 0 0 1 0 0 0 0 0 1 0 0 0 0 0 1 -0 "
         result="colormatrix1"
         id="feColorMatrix95" /><feColorMatrix
         type="saturate"
         values="1"
         result="colormatrix2"
         id="feColorMatrix96" /><feBlend
         in="colormatrix2"
         in2="blur1"
         mode="normal"
         result="blend2"
         id="feBlend96" /><feColorMatrix
         in="blend2"
         type="saturate"
         values="1"
         result="colormatrix3"
         id="feColorMatrix97" /><feComponentTransfer
         in="colormatrix3"
         result="component1"
         id="feComponentTransfer97"><feFuncR
           type="discrete"
           tableValues="0 1 1"
           id="feFuncR97" /><feFuncG
           type="discrete"
           tableValues="0 1 1"
           id="feFuncG97" /><feFuncB
           type="discrete"
           tableValues="0 1 1"
           id="feFuncB97" /></feComponentTransfer><feColorMatrix
         values="1 0 0 0 0 0 1 0 0 0 0 0 1 0 0 -0.2125 -0.7154 -0.0721 1 0 "
         result="colormatrix4"
         id="feColorMatrix98" /><feColorMatrix
         in="component1"
         values="1 0 0 0 0 0 1 0 0 0 0 0 1 0 0 0 0 0 15 0 "
         result="colormatrix5"
         id="feColorMatrix99" /><feComposite
         in2="SourceGraphic"
         operator="in"
         result="composite2"
         id="feComposite99" /></filter></defs><g
     inkscape:label="Lapis 1"
     inkscape:groupmode="layer"
     id="layer1"><path
       id="rect52"
       style="mix-blend-mode:normal;fill:#000000;fill-opacity:0.25;stroke-width:3.221;stroke-linecap:round;stroke-linejoin:round;filter:url(#filter53)"
       d="m 138.22237,85.62847 c -9.0802,0 -16.39062,7.310433 -16.39062,16.39062 v 327.39649 c 0,9.08019 7.31042,16.39062 16.39062,16.39062 H 360.82393 V 85.62847 Z"
       transform="rotate(-5,241.32783,261.90756)" /><g
       id="g24"
       transform="rotate(-5,210.82048,-362.59209)"><rect
         style="opacity:1;fill:#a5855b;fill-opacity:1;stroke-width:3.221;stroke-linecap:round;stroke-linejoin:round;filter:url(#filter99)"
         id="rect7"
         width="32.780525"
         height="360.17737"
         x="67.287155"
         y="75.911331"
         ry="16.390263" /><rect
         style="opacity:1;fill:#caba9f;fill-opacity:1;stroke-width:2.26588;stroke-linecap:round;stroke-linejoin:round;filter:url(#filter94)"
         id="rect1"
         width="222.60184"
         height="360.17734"
         x="83.677414"
         y="75.911331" /></g><g
       id="g58"
       transform="rotate(10,230.42817,-129.87583)"
       inkscape:transform-center-x="-19.975359"
       inkscape:transform-center-y="-137.72485"
       style="fill:#000000;fill-opacity:0.25;filter:url(#filter58)"><rect
         style="opacity:1;fill:#000000;fill-opacity:0.25;stroke-width:3.221;stroke-linecap:round;stroke-linejoin:round"
         id="rect54"
         width="16.129032"
         height="26.064516"
         x="394.70969"
         y="107.74194" /><rect
         style="opacity:1;fill:#000000;fill-opacity:0.25;stroke-width:1.91423;stroke-linecap:round;stroke-linejoin:round"
         id="rect55"
         width="10.654657"
         height="13.935486"
         x="397.44687"
         y="133.80646" /><rect
         style="opacity:1;fill:#000000;fill-opacity:0.25;stroke-width:7.29585;stroke-linecap:round;stroke-linejoin:round"
         id="rect56"
         width="16.129032"
         height="133.72722"
         x="394.70969"
         y="147.74194" /><rect
         style="opacity:1;fill:#000000;fill-opacity:0.25;stroke-width:5.29482;stroke-linecap:round;stroke-linejoin:round"
         id="rect57"
         width="18.32258"
         height="62"
         x="393.61292"
         y="281.46918" /><path
         id="path57"
         style="opacity:1;fill:#000000;fill-opacity:0.25;stroke-width:3.221;stroke-linecap:round;stroke-linejoin:round"
         transform="translate(9.1612857,12.569372)"
         d="m 393.61292,368.60792 -9.16129,-37.70811 h 18.32257 z"
         sodipodi:nodetypes="cccc" /><rect
         style="opacity:1;fill:#000000;fill-opacity:0.25;stroke-width:9.84695;stroke-linecap:round;stroke-linejoin:round"
         id="rect58"
         width="4.8429403"
         height="80.92009"
         x="389.86676"
         y="153.38316" /></g><g
       id="g30"
       transform="rotate(10,299.00849,-135.87583)"
       inkscape:transform-center-x="-19.975359"
       inkscape:transform-center-y="-137.72485"><rect
         style="opacity:1;fill:#858585;stroke-width:3.221;stroke-linecap:round;stroke-linejoin:round;fill-opacity:1;filter:url(#filter87)"
         id="rect26"
         width="16.129032"
         height="26.064516"
         x="394.70969"
         y="107.74194" /><rect
         style="opacity:1;fill:#656565;fill-opacity:1;stroke-width:1.91423;stroke-linecap:round;stroke-linejoin:round;filter:url(#filter82)"
         id="rect27"
         width="10.654657"
         height="13.935486"
         x="397.44687"
         y="133.80646" /><rect
         style="opacity:1;fill:#858585;fill-opacity:1;stroke-width:7.29585;stroke-linecap:round;stroke-linejoin:round;filter:url(#filter77)"
         id="rect28"
         width="16.129032"
         height="133.72722"
         x="394.70969"
         y="147.74194" /><rect
         style="opacity:1;fill:#8d8d8d;stroke-width:5.29482;stroke-linecap:round;stroke-linejoin:round;fill-opacity:1;filter:url(#filter68)"
         id="rect29"
         width="18.32258"
         height="62"
         x="393.61292"
         y="281.46918" /><path
         id="path29"
         style="opacity:1;fill:#cdcdcd;fill-opacity:1;stroke-width:3.221;stroke-linecap:round;stroke-linejoin:round;filter:url(#filter63)"
         transform="translate(9.1612857,12.569372)"
         d="m 391.11605,361.57156 -6.66442,-30.67175 h 18.32257 l -7.14781,30.78292 z"
         sodipodi:nodetypes="ccccc" /><rect
         style="opacity:1;fill:#000101;fill-opacity:1;stroke-width:9.84695;stroke-linecap:round;stroke-linejoin:round;filter:url(#filter92)"
         id="rect30"
         width="4.8429403"
         height="80.92009"
         x="389.86676"
         y="153.38316" /></g></g></svg>
